{
    "id": "{D9E79C57-D7D9-47F0-854B-3CB4123733A3}", 
    "com_objects": {
        "engine": {
            "iid": "{CEAD4F6E-EA8C-4F50-BEBF-14B2FDE28218}", 
            "libid": "{0ACD7C1A-3185-48FA-9023-286059167128}", 
            "clsid": "{CEFE4F78-EA17-4F4E-A89F-2AB2EDE2A918}"
        }, 
        "toolbar": {
            "iid": "{A3201857-2B61-4C7F-B689-D053B7C03905}", 
            "clsid": "{A3CF1874-2B44-4CDE-91A8-995316C0EE05}"
        }, 
        "bho": {
            "iid": "{D9E79C1D-D750-47CF-8498-4CB4E837EAA3}", 
            "libid": "{47F57D80-D2D7-4BEC-9BB2-745273917C25}", 
            "clsid": "{D9E79C57-D7D9-47F0-854B-3CB4123733A3}"
        }
    }
}