{
    "content_scripts": [
        "script/content.js"
    ], 
    "name": "MarketingHelper", 
    "short_name": "Marketing Helper", 
    "creator": "Kango", 
    "description": "Marketing Helper Extension", 
    "framework_version": "1.8.0 3dc957b83b36", 
    "background_scripts": [
        "assets/javascripts/jquery-1.10.2.min.js", 
        "main.js"
    ], 
    "short_description": "Marketing Helper", 
    "homepage_url": "http://kangoextensions.com/", 
    "version": "0.9.0", 
    "options_page": "pages/options.html", 
    "default_locale": "en", 
    "framework_package_id": "dev", 
    "id": "{BD910AA2-3F4C-4FA2-9CA9-591692B60435}", 
    "locales": [
        "en", 
        "vi"
    ], 
    "browser_button": {
        "caption": "Marketing Helper", 
        "tooltipText": "Marketing Helper Extension", 
        "icon": "assets/icons/button_d.png"
    }
}